﻿


EVENT   1
 PAGE   1
  281(1)
  250(bytes(0x04,0x08,0x6f,0x3a,0x0c,0x52,0x50,0x47,0x3a,0x3a,0x53,0x45,0x08,0x3a,0x0a,0x40,0x6e,0x61,0x6d,0x65,0x49,0x22,0x09,0x4d,0x6f,0x76,0x65,0x06,0x3a,0x06,0x45,0x54,0x3a,0x0b,0x40,0x70,0x69,0x74,0x63,0x68,0x69,0x69,0x3a,0x0c,0x40,0x76,0x6f,0x6c,0x75,0x6d,0x65,0x69,0x55))
  TeleportPlayer(0,371,24,40,0,0)
  0()



EVENT   2
 PAGE   1
  281(1)
  250(bytes(0x04,0x08,0x6f,0x3a,0x0c,0x52,0x50,0x47,0x3a,0x3a,0x53,0x45,0x08,0x3a,0x0a,0x40,0x6e,0x61,0x6d,0x65,0x49,0x22,0x09,0x4d,0x6f,0x76,0x65,0x06,0x3a,0x06,0x45,0x54,0x3a,0x0b,0x40,0x70,0x69,0x74,0x63,0x68,0x69,0x69,0x3a,0x0c,0x40,0x76,0x6f,0x6c,0x75,0x6d,0x65,0x69,0x55))
  TeleportPlayer(0,373,16,33,0,0)
  0()



EVENT   3
 PAGE   1
  250(bytes(0x04,0x08,0x6f,0x3a,0x0c,0x52,0x50,0x47,0x3a,0x3a,0x53,0x45,0x08,0x3a,0x0a,0x40,0x6e,0x61,0x6d,0x65,0x49,0x22,0x0a,0x43,0x68,0x65,0x73,0x74,0x06,0x3a,0x06,0x45,0x54,0x3a,0x0b,0x40,0x70,0x69,0x74,0x63,0x68,0x69,0x69,0x3a,0x0c,0x40,0x76,0x6f,0x6c,0x75,0x6d,0x65,0x69,0x55))
  205(0,bytes(0x04,0x08,0x6f,0x3a,0x13,0x52,0x50,0x47,0x3a,0x3a,0x4d,0x6f,0x76,0x65,0x52,0x6f,0x75,0x74,0x65,0x09,0x3a,0x0c,0x40,0x72,0x65,0x70,0x65,0x61,0x74,0x46,0x3a,0x0f,0x40,0x73,0x6b,0x69,0x70,0x70,0x61,0x62,0x6c,0x65,0x46,0x3a,0x0a,0x40,0x77,0x61,0x69,0x74,0x54,0x3a,0x0a,0x40,0x6c,0x69,0x73,0x74,0x5b,0x0b,0x6f,0x3a,0x15,0x52,0x50,0x47,0x3a,0x3a,0x4d,0x6f,0x76,0x65,0x43,0x6f,0x6d,0x6d,0x61,0x6e,0x64,0x07,0x3a,0x0a,0x40,0x63,0x6f,0x64,0x65,0x69,0x29,0x3a,0x10,0x40,0x70,0x61,0x72,0x61,0x6d,0x65,0x74,0x65,0x72,0x73,0x5b,0x00,0x6f,0x3b,0x0a,0x07,0x3b,0x0b,0x69,0x16,0x3b,0x0c,0x5b,0x00,0x6f,0x3b,0x0a,0x07,0x3b,0x0b,0x69,0x14,0x3b,0x0c,0x5b,0x06,0x69,0x08,0x6f,0x3b,0x0a,0x07,0x3b,0x0b,0x69,0x17,0x3b,0x0c,0x5b,0x00,0x6f,0x3b,0x0a,0x07,0x3b,0x0b,0x69,0x14,0x3b,0x0c,0x5b,0x06,0x69,0x08,0x6f,0x3b,0x0a,0x07,0x3b,0x0b,0x69,0x00,0x3b,0x0c,0x5b,0x00))
  ChangeSelfSwitch("A",0)
  ChangeInventory_Item(535,0,0,1)
  0()
 PAGE   2
  // condition: self-switch A is ON
  0()



EVENT   4
 PAGE   1
  250(bytes(0x04,0x08,0x6f,0x3a,0x0c,0x52,0x50,0x47,0x3a,0x3a,0x53,0x45,0x08,0x3a,0x0a,0x40,0x6e,0x61,0x6d,0x65,0x49,0x22,0x0a,0x43,0x68,0x65,0x73,0x74,0x06,0x3a,0x06,0x45,0x54,0x3a,0x0b,0x40,0x70,0x69,0x74,0x63,0x68,0x69,0x69,0x3a,0x0c,0x40,0x76,0x6f,0x6c,0x75,0x6d,0x65,0x69,0x55))
  205(0,bytes(0x04,0x08,0x6f,0x3a,0x13,0x52,0x50,0x47,0x3a,0x3a,0x4d,0x6f,0x76,0x65,0x52,0x6f,0x75,0x74,0x65,0x09,0x3a,0x0c,0x40,0x72,0x65,0x70,0x65,0x61,0x74,0x46,0x3a,0x0f,0x40,0x73,0x6b,0x69,0x70,0x70,0x61,0x62,0x6c,0x65,0x46,0x3a,0x0a,0x40,0x77,0x61,0x69,0x74,0x54,0x3a,0x0a,0x40,0x6c,0x69,0x73,0x74,0x5b,0x0b,0x6f,0x3a,0x15,0x52,0x50,0x47,0x3a,0x3a,0x4d,0x6f,0x76,0x65,0x43,0x6f,0x6d,0x6d,0x61,0x6e,0x64,0x07,0x3a,0x0a,0x40,0x63,0x6f,0x64,0x65,0x69,0x29,0x3a,0x10,0x40,0x70,0x61,0x72,0x61,0x6d,0x65,0x74,0x65,0x72,0x73,0x5b,0x00,0x6f,0x3b,0x0a,0x07,0x3b,0x0b,0x69,0x16,0x3b,0x0c,0x5b,0x00,0x6f,0x3b,0x0a,0x07,0x3b,0x0b,0x69,0x14,0x3b,0x0c,0x5b,0x06,0x69,0x08,0x6f,0x3b,0x0a,0x07,0x3b,0x0b,0x69,0x17,0x3b,0x0c,0x5b,0x00,0x6f,0x3b,0x0a,0x07,0x3b,0x0b,0x69,0x14,0x3b,0x0c,0x5b,0x06,0x69,0x08,0x6f,0x3b,0x0a,0x07,0x3b,0x0b,0x69,0x00,0x3b,0x0c,0x5b,0x00))
  ChangeSelfSwitch("A",0)
  ChangeInventoryWeapon(423,0,0,1)
  0()
 PAGE   2
  // condition: self-switch A is ON
  0()



EVENT   5
 PAGE   1
  250(bytes(0x04,0x08,0x6f,0x3a,0x0c,0x52,0x50,0x47,0x3a,0x3a,0x53,0x45,0x08,0x3a,0x0a,0x40,0x6e,0x61,0x6d,0x65,0x49,0x22,0x0a,0x43,0x68,0x65,0x73,0x74,0x06,0x3a,0x06,0x45,0x54,0x3a,0x0b,0x40,0x70,0x69,0x74,0x63,0x68,0x69,0x69,0x3a,0x0c,0x40,0x76,0x6f,0x6c,0x75,0x6d,0x65,0x69,0x55))
  205(0,bytes(0x04,0x08,0x6f,0x3a,0x13,0x52,0x50,0x47,0x3a,0x3a,0x4d,0x6f,0x76,0x65,0x52,0x6f,0x75,0x74,0x65,0x09,0x3a,0x0c,0x40,0x72,0x65,0x70,0x65,0x61,0x74,0x46,0x3a,0x0f,0x40,0x73,0x6b,0x69,0x70,0x70,0x61,0x62,0x6c,0x65,0x46,0x3a,0x0a,0x40,0x77,0x61,0x69,0x74,0x54,0x3a,0x0a,0x40,0x6c,0x69,0x73,0x74,0x5b,0x0b,0x6f,0x3a,0x15,0x52,0x50,0x47,0x3a,0x3a,0x4d,0x6f,0x76,0x65,0x43,0x6f,0x6d,0x6d,0x61,0x6e,0x64,0x07,0x3a,0x0a,0x40,0x63,0x6f,0x64,0x65,0x69,0x29,0x3a,0x10,0x40,0x70,0x61,0x72,0x61,0x6d,0x65,0x74,0x65,0x72,0x73,0x5b,0x00,0x6f,0x3b,0x0a,0x07,0x3b,0x0b,0x69,0x16,0x3b,0x0c,0x5b,0x00,0x6f,0x3b,0x0a,0x07,0x3b,0x0b,0x69,0x14,0x3b,0x0c,0x5b,0x06,0x69,0x08,0x6f,0x3b,0x0a,0x07,0x3b,0x0b,0x69,0x17,0x3b,0x0c,0x5b,0x00,0x6f,0x3b,0x0a,0x07,0x3b,0x0b,0x69,0x14,0x3b,0x0c,0x5b,0x06,0x69,0x08,0x6f,0x3b,0x0a,0x07,0x3b,0x0b,0x69,0x00,0x3b,0x0c,0x5b,0x00))
  ChangeSelfSwitch("A",0)
  125(0,0,12000)
  ShowMessageFace("",0,0,2,1)
  ShowMessage("12000\\G acquired!")
  0()
 PAGE   2
  // condition: self-switch A is ON
  0()



EVENT   6
 PAGE   1
  If(12,"unlock_level < 1")
   ShowMessageFace("",0,0,2,1)
   ShowMessage("The chest is locked.")
   EndEventProcessing()
   0()
  EndIf()
  250(bytes(0x04,0x08,0x6f,0x3a,0x0c,0x52,0x50,0x47,0x3a,0x3a,0x53,0x45,0x08,0x3a,0x0a,0x40,0x6e,0x61,0x6d,0x65,0x49,0x22,0x0a,0x43,0x68,0x65,0x73,0x74,0x06,0x3a,0x06,0x45,0x54,0x3a,0x0b,0x40,0x70,0x69,0x74,0x63,0x68,0x69,0x69,0x3a,0x0c,0x40,0x76,0x6f,0x6c,0x75,0x6d,0x65,0x69,0x55))
  205(0,bytes(0x04,0x08,0x6f,0x3a,0x13,0x52,0x50,0x47,0x3a,0x3a,0x4d,0x6f,0x76,0x65,0x52,0x6f,0x75,0x74,0x65,0x09,0x3a,0x0c,0x40,0x72,0x65,0x70,0x65,0x61,0x74,0x46,0x3a,0x0f,0x40,0x73,0x6b,0x69,0x70,0x70,0x61,0x62,0x6c,0x65,0x46,0x3a,0x0a,0x40,0x77,0x61,0x69,0x74,0x54,0x3a,0x0a,0x40,0x6c,0x69,0x73,0x74,0x5b,0x0b,0x6f,0x3a,0x15,0x52,0x50,0x47,0x3a,0x3a,0x4d,0x6f,0x76,0x65,0x43,0x6f,0x6d,0x6d,0x61,0x6e,0x64,0x07,0x3a,0x0a,0x40,0x63,0x6f,0x64,0x65,0x69,0x29,0x3a,0x10,0x40,0x70,0x61,0x72,0x61,0x6d,0x65,0x74,0x65,0x72,0x73,0x5b,0x00,0x6f,0x3b,0x0a,0x07,0x3b,0x0b,0x69,0x16,0x3b,0x0c,0x5b,0x00,0x6f,0x3b,0x0a,0x07,0x3b,0x0b,0x69,0x14,0x3b,0x0c,0x5b,0x06,0x69,0x08,0x6f,0x3b,0x0a,0x07,0x3b,0x0b,0x69,0x17,0x3b,0x0c,0x5b,0x00,0x6f,0x3b,0x0a,0x07,0x3b,0x0b,0x69,0x14,0x3b,0x0c,0x5b,0x06,0x69,0x08,0x6f,0x3b,0x0a,0x07,0x3b,0x0b,0x69,0x00,0x3b,0x0c,0x5b,0x00))
  ChangeSelfSwitch("A",0)
  ChangeInventoryArmor(1526,0,0,1)
  0()
 PAGE   2
  // condition: self-switch A is ON
  0()



EVENT   7
 PAGE   1
  If(12,"unlock_level < 1")
   ShowMessageFace("",0,0,2,1)
   ShowMessage("The chest is locked.")
   EndEventProcessing()
   0()
  EndIf()
  250(bytes(0x04,0x08,0x6f,0x3a,0x0c,0x52,0x50,0x47,0x3a,0x3a,0x53,0x45,0x08,0x3a,0x0a,0x40,0x6e,0x61,0x6d,0x65,0x49,0x22,0x0a,0x43,0x68,0x65,0x73,0x74,0x06,0x3a,0x06,0x45,0x54,0x3a,0x0b,0x40,0x70,0x69,0x74,0x63,0x68,0x69,0x69,0x3a,0x0c,0x40,0x76,0x6f,0x6c,0x75,0x6d,0x65,0x69,0x55))
  205(0,bytes(0x04,0x08,0x6f,0x3a,0x13,0x52,0x50,0x47,0x3a,0x3a,0x4d,0x6f,0x76,0x65,0x52,0x6f,0x75,0x74,0x65,0x09,0x3a,0x0c,0x40,0x72,0x65,0x70,0x65,0x61,0x74,0x46,0x3a,0x0f,0x40,0x73,0x6b,0x69,0x70,0x70,0x61,0x62,0x6c,0x65,0x46,0x3a,0x0a,0x40,0x77,0x61,0x69,0x74,0x54,0x3a,0x0a,0x40,0x6c,0x69,0x73,0x74,0x5b,0x0b,0x6f,0x3a,0x15,0x52,0x50,0x47,0x3a,0x3a,0x4d,0x6f,0x76,0x65,0x43,0x6f,0x6d,0x6d,0x61,0x6e,0x64,0x07,0x3a,0x0a,0x40,0x63,0x6f,0x64,0x65,0x69,0x29,0x3a,0x10,0x40,0x70,0x61,0x72,0x61,0x6d,0x65,0x74,0x65,0x72,0x73,0x5b,0x00,0x6f,0x3b,0x0a,0x07,0x3b,0x0b,0x69,0x16,0x3b,0x0c,0x5b,0x00,0x6f,0x3b,0x0a,0x07,0x3b,0x0b,0x69,0x14,0x3b,0x0c,0x5b,0x06,0x69,0x08,0x6f,0x3b,0x0a,0x07,0x3b,0x0b,0x69,0x17,0x3b,0x0c,0x5b,0x00,0x6f,0x3b,0x0a,0x07,0x3b,0x0b,0x69,0x14,0x3b,0x0c,0x5b,0x06,0x69,0x08,0x6f,0x3b,0x0a,0x07,0x3b,0x0b,0x69,0x00,0x3b,0x0c,0x5b,0x00))
  ChangeSelfSwitch("A",0)
  ChangeInventory_Item(511,0,0,1)
  0()
 PAGE   2
  // condition: self-switch A is ON
  0()



EVENT   8
 PAGE   1
  250(bytes(0x04,0x08,0x6f,0x3a,0x0c,0x52,0x50,0x47,0x3a,0x3a,0x53,0x45,0x08,0x3a,0x0a,0x40,0x6e,0x61,0x6d,0x65,0x49,0x22,0x0a,0x43,0x68,0x65,0x73,0x74,0x06,0x3a,0x06,0x45,0x54,0x3a,0x0b,0x40,0x70,0x69,0x74,0x63,0x68,0x69,0x69,0x3a,0x0c,0x40,0x76,0x6f,0x6c,0x75,0x6d,0x65,0x69,0x55))
  205(0,bytes(0x04,0x08,0x6f,0x3a,0x13,0x52,0x50,0x47,0x3a,0x3a,0x4d,0x6f,0x76,0x65,0x52,0x6f,0x75,0x74,0x65,0x09,0x3a,0x0c,0x40,0x72,0x65,0x70,0x65,0x61,0x74,0x46,0x3a,0x0f,0x40,0x73,0x6b,0x69,0x70,0x70,0x61,0x62,0x6c,0x65,0x46,0x3a,0x0a,0x40,0x77,0x61,0x69,0x74,0x54,0x3a,0x0a,0x40,0x6c,0x69,0x73,0x74,0x5b,0x0b,0x6f,0x3a,0x15,0x52,0x50,0x47,0x3a,0x3a,0x4d,0x6f,0x76,0x65,0x43,0x6f,0x6d,0x6d,0x61,0x6e,0x64,0x07,0x3a,0x0a,0x40,0x63,0x6f,0x64,0x65,0x69,0x29,0x3a,0x10,0x40,0x70,0x61,0x72,0x61,0x6d,0x65,0x74,0x65,0x72,0x73,0x5b,0x00,0x6f,0x3b,0x0a,0x07,0x3b,0x0b,0x69,0x16,0x3b,0x0c,0x5b,0x00,0x6f,0x3b,0x0a,0x07,0x3b,0x0b,0x69,0x14,0x3b,0x0c,0x5b,0x06,0x69,0x08,0x6f,0x3b,0x0a,0x07,0x3b,0x0b,0x69,0x17,0x3b,0x0c,0x5b,0x00,0x6f,0x3b,0x0a,0x07,0x3b,0x0b,0x69,0x14,0x3b,0x0c,0x5b,0x06,0x69,0x08,0x6f,0x3b,0x0a,0x07,0x3b,0x0b,0x69,0x00,0x3b,0x0c,0x5b,0x00))
  ChangeSelfSwitch("A",0)
  ChangeInventoryArmor(168,0,0,1,false)
  0()
 PAGE   2
  // condition: self-switch A is ON
  0()



EVENT   9
 PAGE   1
  241(bytes(0x04,0x08,0x6f,0x3a,0x0d,0x52,0x50,0x47,0x3a,0x3a,0x42,0x47,0x4d,0x08,0x3a,0x0a,0x40,0x6e,0x61,0x6d,0x65,0x49,0x22,0x0a,0x62,0x6f,0x73,0x73,0x30,0x06,0x3a,0x06,0x45,0x54,0x3a,0x0c,0x40,0x76,0x6f,0x6c,0x75,0x6d,0x65,0x69,0x69,0x3a,0x0b,0x40,0x70,0x69,0x74,0x63,0x68,0x69,0x69))
  PictureDisplay(5,"80_beelzebub_st01",0,0,0,0,100,100,0,0)
  PictureMove(5,null,0,0,0,0,100,100,255,0,60,true)
  ShowMessageFace("beelzebub_fc1",0,0,2,1)
  ShowMessage("【ベルゼバブＡ】")
  ShowMessage("あら……あなたが、あの海賊が連れてきた戦士ね。")
  ShowMessage("どれほどの豪傑かと思ったら、ずいぶんとひ弱そうじゃない。")
  PictureDisplay(5,"80_beelzebub_st01",0,0,-50,0,100,100,255,0)
  PictureDisplay(6,"80_beelzebub_st11",0,0,220,0,100,100,255,0)
  ShowMessageFace("beelzebub_fc2",0,0,2,2)
  ShowMessage("【ベルゼバブＢ】")
  ShowMessage("ふふっ……でも、とっても可愛いですわ……")
  ShowMessage("たっぷりといたぶってあげましてよ……ぼうや。")
  PictureDisplay(5,"80_beelzebub_st21",0,0,-220,0,100,100,255,0)
  PictureDisplay(6,"80_beelzebub_st01",0,0,250,0,100,100,255,0)
  ShowMessageFace("beelzebub_fc3",0,0,2,3)
  ShowMessage("【ベルゼバブＣ】")
  ShowMessage("しょせんは人間、私達の産卵道具に過ぎないわ。")
  ShowMessage("その器でさえなければ、精を搾って餌にしてあげる……")
  If(4,171,0)
   ShowMessageFace("lizardboss_fc1",3,0,2,4)
   ShowMessage("【ミランダ】")
   ShowMessage("三匹もいるのかい、手こずりそうだねぇ……")
   0()
  EndIf()
  ShowMessageFace("ruka_fc1",0,0,2,5)
  ShowMessage("【ルカ】")
  ShowMessage("お前達は、いったい……")
  If(0,4,0)
   ShowMessageFace("alice_fc6",0,0,2,6)
   ShowMessage("【アリス】")
   ShowMessage("蠅の女王だ……")
   ShowMessageFace("alice_fc6",0,0,2,7)
   ShowMessage("【アリス】")
   ShowMessage("今から千年以上も前、この海域には大きな島があった。")
   ShowMessage("そこに住む蠅の妖魔達は、悪行を重ねていたのだという。")
   ShowMessageFace("alice_fc6",0,0,2,8)
   ShowMessage("【アリス】")
   ShowMessage("ゆえに初代魔王アリスフィーズ1世が討伐し、")
   ShowMessage("その女王を箱に封じたのだ。")
   0()
  EndIf()
  If(0,5,0)
   ShowMessageFace("iriasu_fc4",7,0,2,9)
   ShowMessage("【イリアス】")
   ShowMessage("蝿の女王……！")
   ShowMessage("その繁殖能力の高さゆえ、当時の魔王から危険視された連中です。")
   ShowMessageFace("iriasu_fc4",7,0,2,10)
   ShowMessage("【イリアス】")
   ShowMessage("最終的には当時の魔王の手で討伐され、")
   ShowMessage("三匹まとめて「災厄の箱」に封じられたのですよ……")
   0()
  EndIf()
  If(0,6,0)
   ShowMessageFace("sonia_fc1",5,0,2,11)
   ShowMessage("【ソニア】")
   ShowMessage("箱の中身は、財宝じゃなかったのね……！")
   0()
  Else()
   ShowMessageFace("ruka_fc1",0,0,2,12)
   ShowMessage("【ルカ】")
   ShowMessage("箱の中身は、財宝じゃなかったのか……！")
   0()
  EndIf()
  If(0,4,0)
   ShowMessageFace("alice_fc5",2,0,2,13)
   ShowMessage("【アリス】")
   ShowMessage("開けてはならんと言い伝わっていたはずなのに、")
   ShowMessage("いつしか秘宝伝説にすり換わっていたようだな。")
   ShowMessageFace("alice_fc5",2,0,2,14)
   ShowMessage("【アリス】")
   ShowMessage("そこに封じられた「蠅の女王」こそが、ベルゼバブ――")
   ShowMessage("すなわち、目の前の連中だ。")
   ShowMessageFace("beelzebub_fc1",0,0,2,15)
   ShowMessage("【ベルゼバブＡ】")
   ShowMessage("あなた……魔王の血族のようね。")
   ShowMessage("面白いわ、ここで意趣返しが出来るなんて……")
   ShowMessageFace("alice_fc6",1,0,2,16)
   ShowMessage("【アリス】")
   ShowMessage("ふん！　幽霊ならいざ知らず、貴様等なんぞ怖くも何ともないわ！")
   0()
  EndIf()
  If(0,5,0)
   ShowMessageFace("iriasu_fc4",7,0,2,17)
   ShowMessage("【イリアス】")
   ShowMessage("当初は、開けてはならない禁断の箱と伝えられていましたが……")
   ShowMessage("愚かな人間達の伝言ゲームの中で、秘宝伝説に変わったのですよ。")
   ShowMessageFace("iriasu_fc4",7,0,2,18)
   ShowMessage("【イリアス】")
   ShowMessage("そこに封じられた「蠅の女王」こそが、ベルゼバブ――")
   ShowMessage("目の前にいる、汚らわしい連中です。")
   ShowMessageFace("beelzebub_fc1",0,0,2,19)
   ShowMessage("【ベルゼバブＡ】")
   ShowMessage("ずいぶん、事情に詳しい天使ね……")
   ShowMessage("私、一度でいいから天使を食べてみたかったのよ。")
   ShowMessageFace("iriasu_fc5",0,0,2,20)
   ShowMessage("【イリアス】")
   ShowMessage("私を食べるなど、なんと畏れ多い！")
   ShowMessage("おなかを壊しますよ！")
   0()
  EndIf()
  ShowMessageFace("serene_fc1",5,0,2,21)
  ShowMessage("【セレナ】")
  ShowMessage("ベルゼバブ達を、外の世界に出す訳にはいかないわ……")
  ShowMessage("ルカ君、頼んだわよ！")
  ShowMessageFace("ruka_fc1",0,0,2,22)
  ShowMessage("【ルカ】")
  ShowMessage("任せて下さい！　行くぞ、ベルゼバブ！")
  PictureDisplay(5,"80_beelzebub_st01",0,0,-50,0,100,100,255,0)
  PictureDisplay(6,"80_beelzebub_st11",0,0,220,0,100,100,255,0)
  ShowMessageFace("beelzebub_fc2",0,0,2,23)
  ShowMessage("【ベルゼバブＢ】")
  ShowMessage("ああ、なんて美味しそうなボウヤなのでしょう……")
  ShowMessage("その精を搾り取り、何千もの子を産んであげますからね。")
  PictureDisplay(5,"80_beelzebub_st21",0,0,-220,0,100,100,255,0)
  PictureDisplay(6,"80_beelzebub_st01",0,0,250,0,100,100,255,0)
  ShowMessageFace("beelzebub_fc3",0,0,2,24)
  ShowMessage("【ベルゼバブＣ】")
  ShowMessage("他の連中はいらないわ、殺していいわね……")
  ShowMessageFace("beelzebub_fc1",0,0,2,25)
  ShowMessage("【ベルゼバブＡ】")
  ShowMessage("あなた達を始末してから、私達は外の世界へ旅立つわ。")
  ShowMessage("何千何万もの、蠅の軍団を引き連れてね――")
  If(4,202,0)
   ShowMessageFace("bonny_fc1",0,0,2,26)
   ShowMessage("【ボニー】")
   ShowMessage("そんな事、させるものか！")
   ShowMessage("おさかな海賊団、ふんばり時だぞ！")
   If(4,53,0)
    ShowMessageFace("slime_fc1",0,0,2,27)
    ShowMessage("【ライム】")
    ShowMessage("おかしら！　よ～そろ～！")
    0()
   EndIf()
   0()
  EndIf()
  If(4,275,0)
   ShowMessageFace("beelzebub_fc1",0,0,2,28)
   ShowMessage("【バーバレラ】")
   ShowMessage("やめておきなさい、外は危険よ。")
   ShowMessage("この中で、井の中の蛙を気取っている方が幸せね……")
   ShowMessageFace("beelzebub_fc1",2,0,2,29)
   ShowMessage("【ベルゼバブＡ】")
   ShowMessage("なんと、私と同じ姿で何を言う！")
   ShowMessage("そんな小細工は、通用しないわ！！")
   0()
  EndIf()
  PictureClear(5)
  PictureClear(6)
  SetBattleBGM(bytes(0x04,0x08,0x6f,0x3a,0x0d,0x52,0x50,0x47,0x3a,0x3a,0x42,0x47,0x4d,0x08,0x3a,0x0a,0x40,0x6e,0x61,0x6d,0x65,0x49,0x22,0x0a,0x62,0x6f,0x73,0x73,0x31,0x06,0x3a,0x06,0x45,0x54,0x3a,0x0c,0x40,0x76,0x6f,0x6c,0x75,0x6d,0x65,0x69,0x69,0x3a,0x0b,0x40,0x70,0x69,0x74,0x63,0x68,0x69,0x69))
  ChangeSwitch(22,22,0)
  Battle(0,730,false,false)
  ChangeSwitch(22,22,1)
  SetBattleBGM(bytes(0x04,0x08,0x6f,0x3a,0x0d,0x52,0x50,0x47,0x3a,0x3a,0x42,0x47,0x4d,0x08,0x3a,0x0a,0x40,0x6e,0x61,0x6d,0x65,0x49,0x22,0x0b,0x62,0x61,0x74,0x74,0x6c,0x65,0x06,0x3a,0x06,0x45,0x54,0x3a,0x0c,0x40,0x76,0x6f,0x6c,0x75,0x6d,0x65,0x69,0x69,0x3a,0x0b,0x40,0x70,0x69,0x74,0x63,0x68,0x69,0x69))
  If(4,129,0)
   ShowMessageFace("brunhild_fc1",0,0,2,30)
   ShowMessage("【ヒルデ】")
   ShowMessage("敵、沈黙……ヒルデ達の勝利だよ。")
   0()
  EndIf()
  ShowMessageFace("beelzebub_fc1",2,0,2,31)
  ShowMessage("【ベルゼバブＡ】")
  ShowMessage("まさか、私達が……")
  ShowMessageFace("beelzebub_fc2",2,0,2,32)
  ShowMessage("【ベルゼバブＢ】")
  ShowMessage("これ程までに強いなんて……")
  ShowMessageFace("beelzebub_fc3",2,0,2,33)
  ShowMessage("【ベルゼバブＣ】")
  ShowMessage("……………………")
  250(bytes(0x04,0x08,0x6f,0x3a,0x0c,0x52,0x50,0x47,0x3a,0x3a,0x53,0x45,0x08,0x3a,0x0a,0x40,0x6e,0x61,0x6d,0x65,0x49,0x22,0x0d,0x6d,0x6f,0x6e,0x5f,0x77,0x61,0x72,0x70,0x06,0x3a,0x06,0x45,0x54,0x3a,0x0b,0x40,0x70,0x69,0x74,0x63,0x68,0x69,0x69,0x3a,0x0c,0x40,0x76,0x6f,0x6c,0x75,0x6d,0x65,0x69,0x55))
  ChangeVariable(1067,1067,0,0,4)
  ShowMessageFace("",0,0,2,34)
  ShowMessage("ベルゼバブ達は、無数の蠅となって消え失せた！")
  ShowMessageFace("ruka_fc1",0,0,2,35)
  ShowMessage("【ルカ】")
  ShowMessage("消えた！？　いや、倒したのか……？")
  If(0,4,0)
   ShowMessageFace("alice_fc5",1,0,2,36)
   ShowMessage("【アリス】")
   ShowMessage("うむ、完全に気配が消えた。")
   ShowMessage("かの妖魔を、完全に討伐したのだ。")
   0()
  EndIf()
  If(0,5,0)
   ShowMessageFace("iriasu_fc4",0,0,2,37)
   ShowMessage("【イリアス】")
   ShowMessage("気配が完全に消えました。")
   ShowMessage("討伐に成功したのです。")
   0()
  EndIf()
  241(bytes(0x04,0x08,0x6f,0x3a,0x0d,0x52,0x50,0x47,0x3a,0x3a,0x42,0x47,0x4d,0x08,0x3a,0x0a,0x40,0x6e,0x61,0x6d,0x65,0x49,0x22,0x18,0x64,0x75,0x6e,0x67,0x65,0x6f,0x6e,0x5f,0x6f,0x62,0x61,0x6b,0x65,0x79,0x61,0x73,0x69,0x6b,0x69,0x06,0x3a,0x06,0x45,0x54,0x3a,0x0c,0x40,0x76,0x6f,0x6c,0x75,0x6d,0x65,0x69,0x69,0x3a,0x0b,0x40,0x70,0x69,0x74,0x63,0x68,0x69,0x69))
  If(4,202,0)
   ShowMessageFace("bonny_fc1",1,0,2,38)
   ShowMessage("【ボニー】")
   ShowMessage("やったぞ！　おさかな海賊団の勝利だ！")
   0()
  EndIf()
  ShowMessageFace("serene_fc1",4,0,2,39)
  ShowMessage("【セレナ】")
  ShowMessage("ありがとう、みんな……")
  ShowMessage("おかげで、積年の憂いが完全に晴れたわ。")
  ShowMessageFace("serene_fc1",4,0,2,40)
  ShowMessage("【セレナ】")
  ShowMessage("最期に、私から伝える事があるのだけれど……")
  ShowMessage("まず、私達の船に戻りましょうか。")
  ShowMessageFace("serene_fc1",3,0,2,41)
  ShowMessage("【セレナ】")
  ShowMessage("……っと、忘れるところだったわね。")
  ShowMessage("宝物庫に眠る貴重品、あなた達にぜひ譲りたいの。")
  ShowMessageFace("serene_fc1",3,0,2,42)
  ShowMessage("【セレナ】")
  ShowMessage("この部屋に、宝物庫の鍵が隠してあるわ。")
  ShowMessage("えっと、どこだったかしら……確か、どこかのメモに……")
  EndEventProcessing()
  0()
 PAGE   2
  // condition: variable 1067 >= 4
  0()



EVENT   10
 PAGE   1
  PictureDisplay(5,"80_beelzebub_st11",0,0,0,0,100,100,255,0)
  ShowMessageFace("beelzebub_fc2",0,0,2,1)
  ShowMessage("【ベルゼバブＢ】")
  ShowMessage("ふふっ……わざわざ私達に会いに来てくれたのですね？")
  ShowMessage("たっぷり歓迎してあげましょう……")
  PictureClear(5)
  0()
 PAGE   2
  // condition: variable 1067 >= 4
  0()



EVENT   11
 PAGE   1
  PictureDisplay(5,"80_beelzebub_st21",0,0,0,0,100,100,255,0)
  ShowMessageFace("beelzebub_fc3",0,0,2,1)
  ShowMessage("【ベルゼバブＣ】")
  ShowMessage("人間が外から入ってくるなんて……")
  ShowMessage("そんなに餌になりたいの？")
  PictureClear(5)
  0()
 PAGE   2
  // condition: variable 1067 >= 4
  0()



EVENT   12
 PAGE   1
  If(0,4,0)
   ShowMessageFace("alice_fc5",2,0,2,1)
   ShowMessage("【アリス】")
   ShowMessage("どこへ行く？　敵は目の前にいるのだぞ……")
   0()
  EndIf()
  If(0,5,0)
   ShowMessageFace("iriasu_fc4",7,0,2,2)
   ShowMessage("【イリアス】")
   ShowMessage("敵に背を向けるとは何事です！")
   ShowMessage("さあ、あの者どもを討伐しますよ！")
   0()
  EndIf()
  205(-1,bytes(0x04,0x08,0x6f,0x3a,0x13,0x52,0x50,0x47,0x3a,0x3a,0x4d,0x6f,0x76,0x65,0x52,0x6f,0x75,0x74,0x65,0x09,0x3a,0x0c,0x40,0x72,0x65,0x70,0x65,0x61,0x74,0x46,0x3a,0x0f,0x40,0x73,0x6b,0x69,0x70,0x70,0x61,0x62,0x6c,0x65,0x46,0x3a,0x0a,0x40,0x77,0x61,0x69,0x74,0x54,0x3a,0x0a,0x40,0x6c,0x69,0x73,0x74,0x5b,0x07,0x6f,0x3a,0x15,0x52,0x50,0x47,0x3a,0x3a,0x4d,0x6f,0x76,0x65,0x43,0x6f,0x6d,0x6d,0x61,0x6e,0x64,0x07,0x3a,0x0a,0x40,0x63,0x6f,0x64,0x65,0x69,0x08,0x3a,0x10,0x40,0x70,0x61,0x72,0x61,0x6d,0x65,0x74,0x65,0x72,0x73,0x5b,0x00,0x6f,0x3b,0x0a,0x07,0x3b,0x0b,0x69,0x00,0x3b,0x0c,0x5b,0x00))
  0()
 PAGE   2
  // condition: variable 1067 >= 4
  0()



EVENT   13
 PAGE   1
  If(0,4,0)
   ShowMessageFace("alice_fc5",2,0,2,1)
   ShowMessage("【アリス】")
   ShowMessage("どこへ行く？　敵は目の前にいるのだぞ……")
   0()
  EndIf()
  If(0,5,0)
   ShowMessageFace("iriasu_fc4",7,0,2,2)
   ShowMessage("【イリアス】")
   ShowMessage("敵に背を向けるとは何事です！")
   ShowMessage("さあ、あの者どもを討伐しますよ！")
   0()
  EndIf()
  205(-1,bytes(0x04,0x08,0x6f,0x3a,0x13,0x52,0x50,0x47,0x3a,0x3a,0x4d,0x6f,0x76,0x65,0x52,0x6f,0x75,0x74,0x65,0x09,0x3a,0x0c,0x40,0x72,0x65,0x70,0x65,0x61,0x74,0x46,0x3a,0x0f,0x40,0x73,0x6b,0x69,0x70,0x70,0x61,0x62,0x6c,0x65,0x46,0x3a,0x0a,0x40,0x77,0x61,0x69,0x74,0x54,0x3a,0x0a,0x40,0x6c,0x69,0x73,0x74,0x5b,0x07,0x6f,0x3a,0x15,0x52,0x50,0x47,0x3a,0x3a,0x4d,0x6f,0x76,0x65,0x43,0x6f,0x6d,0x6d,0x61,0x6e,0x64,0x07,0x3a,0x0a,0x40,0x63,0x6f,0x64,0x65,0x69,0x08,0x3a,0x10,0x40,0x70,0x61,0x72,0x61,0x6d,0x65,0x74,0x65,0x72,0x73,0x5b,0x00,0x6f,0x3b,0x0a,0x07,0x3b,0x0b,0x69,0x00,0x3b,0x0c,0x5b,0x00))
  0()
 PAGE   2
  // condition: variable 1067 >= 4
  0()



EVENT   15
 PAGE   1
  ShowMessageFace("",0,0,2,1)
  ShowMessage("メモ：宝物庫の鍵の隠し場所")
  ShowMessage("「船長に対面し、左手の向かうがままに」")
  If(8,535)
   EndEventProcessing()
   0()
  Else()
   If(0,6,0)
    ShowMessageFace("sonia_fc1",0,0,2,2)
    ShowMessage("【ソニア】")
    ShowMessage("これは重要そうな情報ね……")
    ShowMessage("しっかり覚えておきましょうよ。")
    0()
   Else()
    ShowMessageFace("ruka_fc1",0,0,2,3)
    ShowMessage("【ルカ】")
    ShowMessage("これは重要そうな情報だね……")
    ShowMessage("しっかり覚えておこう。")
    0()
   EndIf()
   EndEventProcessing()
   0()
  EndIf()
  0()



EVENT   16
 PAGE   1
  ShowMessageFace("",0,0,2,1)
  ShowMessage("財宝目録がある……")
  ShowMessage("様々な美術品の中に、パープルオーブの記載があった。")
  If(8,541)
   EndEventProcessing()
   0()
  Else()
   If(0,4,0)
    ShowMessageFace("alice_fc5",0,0,2,2)
    ShowMessage("【アリス】")
    ShowMessage("パープルオーブがこの船にあるのか……")
    ShowMessage("冒険の役に立つかもしれん、ぜひ回収しておきたいな。")
    0()
   EndIf()
   If(0,5,0)
    ShowMessageFace("iriasu_fc4",2,0,2,3)
    ShowMessage("【イリアス】")
    ShowMessage("そうでしたね、この船にパープルオーブが乗せられて……")
    ShowMessage("必要になる時が来るかもしれません、回収しておきましょう。")
    0()
   EndIf()
   ShowMessageFace("serene_fc1",5,0,2,4)
   ShowMessage("【セレナ】")
   ShowMessage("パープルオーブは宝物庫に安置されているわ。")
   ShowMessage("まずは、そこに入るための鍵を手に入れないとね……")
   EndEventProcessing()
   0()
  EndIf()
  0()

EVENT   17
 PAGE   1
  250(bytes(0x04,0x08,0x6f,0x3a,0x0c,0x52,0x50,0x47,0x3a,0x3a,0x53,0x45,0x08,0x3a,0x0a,0x40,0x6e,0x61,0x6d,0x65,0x49,0x22,0x0a,0x49,0x74,0x65,0x6d,0x31,0x06,0x3a,0x06,0x45,0x54,0x3a,0x0b,0x40,0x70,0x69,0x74,0x63,0x68,0x69,0x69,0x3a,0x0c,0x40,0x76,0x6f,0x6c,0x75,0x6d,0x65,0x69,0x55))
  ChangeSelfSwitch("A",0)
  ChangeInventory_Item(32,0,0,1)
  0()
 PAGE   2
  // condition: self-switch A is ON
  0()


