// EVENT 0004
Name "Execute Before Combat"

ChangeSwitch(21,21,1)
ChangeVariable(11,11,0,4,"party_members.size")
If(1,11,0,1,0)
 ChangeSwitch(7,7,0)
 0()
EndIf()
If(1,902,0,-2,0)
 If(0,41,1)
  313(0,0,0,318)
  333(-1,0,319)
  0()
 EndIf()
 0()
EndIf()
If(0,61,0)
 313(0,0,0,185)
 250(bytes(0x04,0x08,0x6f,0x3a,0x0c,0x52,0x50,0x47,0x3a,0x3a,0x53,0x45,0x08,0x3a,0x0a,0x40,0x6e,0x61,0x6d,0x65,0x49,0x22,0x0e,0x6d,0x6f,0x6e,0x5f,0x77,0x69,0x6e,0x64,0x31,0x06,0x3a,0x06,0x45,0x54,0x3a,0x0b,0x40,0x70,0x69,0x74,0x63,0x68,0x69,0x69,0x3a,0x0c,0x40,0x76,0x6f,0x6c,0x75,0x6d,0x65,0x69,0x69))
 ShowMessageFace("",0,0,2,1)
 ShowMessage("Sylph imbues the party with the power of the wind!")
 0()
EndIf()
If(0,62,0)
 313(0,0,0,186)
 250(bytes(0x04,0x08,0x6f,0x3a,0x0c,0x52,0x50,0x47,0x3a,0x3a,0x53,0x45,0x08,0x3a,0x0a,0x40,0x6e,0x61,0x6d,0x65,0x49,0x22,0x0f,0x6d,0x6f,0x6e,0x5f,0x65,0x61,0x72,0x74,0x68,0x31,0x06,0x3a,0x06,0x45,0x54,0x3a,0x0b,0x40,0x70,0x69,0x74,0x63,0x68,0x69,0x69,0x3a,0x0c,0x40,0x76,0x6f,0x6c,0x75,0x6d,0x65,0x69,0x69))
 ShowMessageFace("",0,0,2,2)
 ShowMessage("Gnome imbues the party with the power of the earth!")
 0()
EndIf()
If(0,63,0)
 313(0,0,0,187)
 250(bytes(0x04,0x08,0x6f,0x3a,0x0c,0x52,0x50,0x47,0x3a,0x3a,0x53,0x45,0x08,0x3a,0x0a,0x40,0x6e,0x61,0x6d,0x65,0x49,0x22,0x0d,0x6d,0x6f,0x6e,0x5f,0x61,0x71,0x75,0x61,0x06,0x3a,0x06,0x45,0x54,0x3a,0x0b,0x40,0x70,0x69,0x74,0x63,0x68,0x69,0x69,0x3a,0x0c,0x40,0x76,0x6f,0x6c,0x75,0x6d,0x65,0x69,0x69))
 ShowMessageFace("",0,0,2,3)
 ShowMessage("Undine imbues the party with the power of water!")
 0()
EndIf()
If(0,64,0)
 313(0,0,0,188)
 250(bytes(0x04,0x08,0x6f,0x3a,0x0c,0x52,0x50,0x47,0x3a,0x3a,0x53,0x45,0x08,0x3a,0x0a,0x40,0x6e,0x61,0x6d,0x65,0x49,0x22,0x0e,0x6d,0x6f,0x6e,0x5f,0x66,0x69,0x72,0x65,0x32,0x06,0x3a,0x06,0x45,0x54,0x3a,0x0b,0x40,0x70,0x69,0x74,0x63,0x68,0x69,0x69,0x3a,0x0c,0x40,0x76,0x6f,0x6c,0x75,0x6d,0x65,0x69,0x69))
 ShowMessageFace("",0,0,2,4)
 ShowMessage("Salamander imbues the party with the power of fire!")
 0()
EndIf()
If(0,65,0)
 313(0,0,0,137)
 0()
EndIf()
If(0,66,0)
 313(0,0,0,326)
 0()
EndIf()
If(0,67,0)
 313(0,0,0,327)
 0()
EndIf()
If(0,68,0)
 313(0,0,0,328)
 0()
EndIf()
If(0,69,0)
 313(0,0,0,151)
 0()
EndIf()
If(0,70,0)
 313(0,0,0,329)
 0()
EndIf()
If(0,71,0)
 313(0,0,0,330)
 0()
EndIf()
If(0,72,0)
 313(0,0,0,234)
 ShowMessageFace("",0,0,2,5)
 ShowMessage("The Minotauros's beef bowl restored the party's strength!")
 0()
EndIf()
0()
