// EVENT 0902
Name "Chaos Labyrinth Escape"

ChangeSwitch(41,41,1)
ChangeSwitch(52,52,1)
ChangeSaveEnabled(1)
ChangeSwitch(61,61,1)
ChangeSwitch(62,62,1)
ChangeSwitch(63,63,1)
ChangeSwitch(64,64,1)
ChangeSwitch(65,65,1)
ChangeSwitch(69,69,1)
ChangeSwitch(70,70,1)
ChangeSwitch(71,71,1)
ChangeSwitch(72,72,1)
ChangeSwitch(54,54,1)
ChangeSwitch(66,66,1)
ChangeSwitch(67,67,1)
ChangeSwitch(68,68,1)
ChangeVariable(131,131,0,0,0)
If(1,121,1,122,1)
 ChangeVariable(122,122,0,1,121)
 If(1,122,0,10,1)
  355("gain_medal(3100)")
  0()
 EndIf()
 If(1,122,0,50,1)
  355("gain_medal(3101)")
  0()
 EndIf()
 If(1,122,0,100,1)
  355("gain_medal(3102)")
  0()
 EndIf()
 If(1,122,0,200,1)
  355("gain_medal(3103)")
  0()
 EndIf()
 ShowMessageFace("",0,0,2,1)
 ShowMessage("This time's record：Floor \\V[121] reached")
 ShowMessage("All-time record updated!")
 0()
Else()
 ShowMessageFace("",0,0,2,2)
 ShowMessage("This time's record：Floor \\V[121] reached")
 ShowMessage("All-time record is floor \\V[122]")
 0()
EndIf()
ChangeVariable(121,121,0,0,0)
RunCommonEvent(112)
EndEventProcessing()
0()
